pipeline/pm.vcd
$date
	Sun Oct 28 19:38:54 2012
$end
$version
	Icarus Verilog
$end
$timescale
	1s
$end
$scope module test $end
$var reg 1 ! clk $end
$var reg 1 " done $end
$var integer 32 # i [31:0] $end
$var reg 1 $ reset $end
$scope module pm $end
$var wire 3 % ALUOp [2:0] $end
$var wire 1 & ALUSrc $end
$var wire 1 ' BEQ $end
$var wire 32 ( B_data [31:0] $end
$var wire 1 ) MemRead $end
$var wire 1 * MemToReg $end
$var wire 1 + MemWrite $end
$var wire 32 , PC [31:0] $end
$var wire 1 - PCSrc $end
$var wire 30 . PC_plus4 [31:2] $end
$var wire 30 / PC_target [31:2] $end
$var wire 1 0 RegDst $end
$var wire 1 1 RegWrite $end
$var wire 32 2 alu_out_data [31:0] $end
$var wire 1 3 clk $end
$var wire 6 4 funct [5:0] $end
$var wire 32 5 imm [31:0] $end
$var wire 32 6 inst [31:0] $end
$var wire 32 7 load_data [31:0] $end
$var wire 30 8 next_PC [31:2] $end
$var wire 6 9 opcode [5:0] $end
$var wire 5 : rd [4:0] $end
$var wire 32 ; rd1_data [31:0] $end
$var wire 32 < rd2_data [31:0] $end
$var wire 1 = reset $end
$var wire 5 > rs [4:0] $end
$var wire 5 ? rt [4:0] $end
$var wire 32 @ wr_data [31:0] $end
$var wire 5 A wr_regnum [4:0] $end
$var wire 1 B zero $end
$scope module PC_reg $end
$var wire 1 3 clk $end
$var wire 30 C d [29:0] $end
$var wire 1 D enable $end
$var wire 1 = reset $end
$var reg 30 E q [29:0] $end
$upscope $end
$scope module next_PC_adder $end
$var wire 30 F in1 [29:0] $end
$var wire 30 G in2 [29:0] $end
$var wire 30 H out [29:0] $end
$upscope $end
$scope module target_PC_adder $end
$var wire 30 I in1 [29:0] $end
$var wire 30 J in2 [29:0] $end
$var wire 30 K out [29:0] $end
$upscope $end
$scope module branch_mux $end
$var wire 30 L A [29:0] $end
$var wire 30 M B [29:0] $end
$var wire 30 N out [29:0] $end
$var wire 1 - sel $end
$var wire 30 O temp1 [29:0] $end
$var wire 30 P temp2 [29:0] $end
$upscope $end
$scope module imem $end
$var wire 30 Q addr [29:0] $end
$var wire 32 R data [31:0] $end
$var reg 32 S i [31:0] $end
$upscope $end
$scope module decode $end
$var wire 3 T ALUOp [2:0] $end
$var wire 1 & ALUSrc $end
$var wire 1 ' BEQ $end
$var wire 1 ) MemRead $end
$var wire 1 * MemToReg $end
$var wire 1 + MemWrite $end
$var wire 1 0 RegDst $end
$var wire 1 1 RegWrite $end
$var wire 6 U funct [5:0] $end
$var wire 1 V nop $end
$var wire 1 W op0 $end
$var wire 6 X opcode [5:0] $end
$upscope $end
$scope module rf $end
$var wire 1 3 clock $end
$var wire 32 Y rdData [31:0] $end
$var wire 5 Z rdNum [4:0] $end
$var wire 1 1 rdWriteEnable $end
$var wire 1 = reset $end
$var wire 32 [ rsData [31:0] $end
$var wire 5 \ rsNum [4:0] $end
$var wire 32 ] rtData [31:0] $end
$var wire 5 ^ rtNum [4:0] $end
$var integer 32 _ i [31:0] $end
$upscope $end
$scope module imm_mux $end
$var wire 32 ` A [31:0] $end
$var wire 32 a B [31:0] $end
$var wire 32 b out [31:0] $end
$var wire 1 & sel $end
$var wire 32 c temp1 [31:0] $end
$var wire 32 d temp2 [31:0] $end
$upscope $end
$scope module alu $end
$var wire 3 e control [2:0] $end
$var wire 32 f inA [31:0] $end
$var wire 32 g inB [31:0] $end
$var wire 32 h out [31:0] $end
$var wire 1 B zero $end
$upscope $end
$scope module data_memory $end
$var wire 32 i addr [31:0] $end
$var wire 1 3 clk $end
$var wire 32 j d_out [31:0] $end
$var wire 32 k data_in [31:0] $end
$var wire 32 l data_out [31:0] $end
$var wire 19 m index [18:0] $end
$var wire 1 ) mem_read $end
$var wire 1 + mem_write $end
$var wire 1 = reset $end
$var wire 1 n valid_address $end
$var integer 32 o i [31:0] $end
$upscope $end
$scope module wb_mux $end
$var wire 32 p A [31:0] $end
$var wire 32 q B [31:0] $end
$var wire 32 r out [31:0] $end
$var wire 1 * sel $end
$var wire 32 s temp1 [31:0] $end
$var wire 32 t temp2 [31:0] $end
$upscope $end
$scope module rd_mux $end
$var wire 5 u A [4:0] $end
$var wire 5 v B [4:0] $end
$var wire 5 w out [4:0] $end
$var wire 1 0 sel $end
$var wire 5 x temp1 [4:0] $end
$var wire 5 y temp2 [4:0] $end
$upscope $end
$upscope $end
$upscope $end
$enddefinitions $end
#0
$dumpvars
bx y
bx x
bx w
bx v
bx u
bx t
bx s
bx r
bx q
bx p
b1000000000000000000 o
xn
bx m
bx l
bx k
bx j
bx i
bx h
bx g
bx f
bx e
bx d
bx c
bx b
bx a
bx `
b100000 _
bx ^
bx ]
bx \
bx [
bx Z
bx Y
bx X
xW
xV
bx U
bx T
b100000000 S
bx R
bx Q
bx P
bx O
bx N
bx M
bx L
bx K
bx J
bx I
bx H
b1 G
bx F
bx E
1D
bx C
xB
bx A
bx @
bx ?
bx >
1=
bx <
bx ;
bx :
bx 9
bx 8
bx 7
bx 6
bx 5
bx 4
03
bx 2
x1
x0
bx /
bx .
x-
bx00 ,
x+
x*
x)
bx (
x'
x&
bx %
1$
bx #
0"
0!
$end
#5
b1 @
b1 Y
b1 r
b1 t
b1 7
b1 l
b1 q
b1 j
1n
b100000000000000 m
b10000000000010000000000000000 2
b10000000000010000000000000000 h
b10000000000010000000000000000 i
b10000000000010000000000000000 p
b0 %
b0 T
b0 e
0B
11
b100000000000000000001 8
b100000000000000000001 C
b100000000000000000001 N
b10 A
b10 Z
b10 w
b0 P
b0 (
b0 b
b0 g
0-
00
b0 s
1&
0V
b0 y
b0 c
b10 x
b0 J
b100000000000000000001 /
b100000000000000000001 K
b100000000000000000001 M
b0 d
b0 4
b0 U
0'
1*
1)
0+
0W
b100011 9
b100011 X
b0 :
b0 v
b10000000000010000000000000000 <
b10000000000010000000000000000 ]
b10000000000010000000000000000 `
b10000000000010000000000000000 k
b10 ?
b10 ^
b10 u
b10000000000010000000000000000 ;
b10000000000010000000000000000 [
b10000000000010000000000000000 f
b10100 >
b10100 \
b0 5
b0 a
b100000000000000000001 O
b10001110100000100000000000000000 6
b10001110100000100000000000000000 R
b100000000000000000000 F
b100000000000000000001 .
b100000000000000000001 H
b100000000000000000001 I
b100000000000000000001 L
b100000000000000000000 Q
b100000000000000000000 E
b10000000000000000000000 ,
1!
13
#10
0!
03
#13
0$
0=
#15
b11111111 @
b11111111 Y
b11111111 r
b11111111 t
b11111111 7
b11111111 l
b11111111 q
b11111111 j
b100000000000001 m
b10000000000010000000000000100 2
b10000000000010000000000000100 h
b10000000000010000000000000100 i
b10000000000010000000000000100 p
b11 A
b11 Z
b11 w
b100 (
b100 b
b100 g
b11 x
b100 J
b100 d
b100000000000000000010 8
b100000000000000000010 C
b100000000000000000010 N
b100 4
b100 U
b11 ?
b11 ^
b11 u
b100 5
b100 a
b100000000000000000010 O
b10001110100000110000000000000100 6
b10001110100000110000000000000100 R
b100000000000000000001 F
b100000000000000000110 /
b100000000000000000110 K
b100000000000000000110 M
b100000000000000000010 .
b100000000000000000010 H
b100000000000000000010 I
b100000000000000000010 L
b100000000000000000001 Q
b10000000000010000000000000000 <
b10000000000010000000000000000 ]
b10000000000010000000000000000 `
b10000000000010000000000000000 k
b100000000000000000001 E
b10000000000000000000100 ,
1!
13
#20
0!
03
#25
b10000000000 @
b10000000000 Y
b10000000000 r
b10000000000 t
b10000000000 7
b10000000000 l
b10000000000 q
b10000000000 j
b100000000000010 m
b10000000000010000000000001000 2
b10000000000010000000000001000 h
b10000000000010000000000001000 i
b10000000000010000000000001000 p
b100 A
b100 Z
b100 w
b1000 (
b1000 b
b1000 g
b100 x
b1000 J
b1000 d
b100000000000000000011 8
b100000000000000000011 C
b100000000000000000011 N
b1000 4
b1000 U
b100 ?
b100 ^
b100 u
b1000 5
b1000 a
b100000000000000000011 O
b10001110100001000000000000001000 6
b10001110100001000000000000001000 R
b100000000000000000010 F
b100000000000000001011 /
b100000000000000001011 K
b100000000000000001011 M
b100000000000000000011 .
b100000000000000000011 H
b100000000000000000011 I
b100000000000000000011 L
b100000000000000000010 Q
b100000000000000000010 E
b10000000000000000001000 ,
b10000000000010000000000000000 <
b10000000000010000000000000000 ]
b10000000000010000000000000000 `
b10000000000010000000000000000 k
1!
13
#30
0!
03
#35
b1100100 @
b1100100 Y
b1100100 r
b1100100 t
b1100100 7
b1100100 l
b1100100 q
b1100100 j
b100000000000011 m
b10000000000010000000000001100 2
b10000000000010000000000001100 h
b10000000000010000000000001100 i
b10000000000010000000000001100 p
b101 A
b101 Z
b101 w
b1100 (
b1100 b
b1100 g
b101 x
b1100 J
b1100 d
b100000000000000000100 8
b100000000000000000100 C
b100000000000000000100 N
b1100 4
b1100 U
b101 ?
b101 ^
b101 u
b1100 5
b1100 a
b100000000000000000100 O
b10001110100001010000000000001100 6
b10001110100001010000000000001100 R
b100000000000000000011 F
b100000000000000010000 /
b100000000000000010000 K
b100000000000000010000 M
b100000000000000000100 .
b100000000000000000100 H
b100000000000000000100 I
b100000000000000000100 L
b100000000000000000011 Q
b10000000000010000000000000000 <
b10000000000010000000000000000 ]
b10000000000010000000000000000 `
b10000000000010000000000000000 k
b100000000000000000011 E
b10000000000000000001100 ,
1!
13
#40
0!
03
#45
b11001000 @
b11001000 Y
b11001000 r
b11001000 t
b11001000 7
b11001000 l
b11001000 q
b11001000 j
b100000000000100 m
b10000000000010000000000010000 2
b10000000000010000000000010000 h
b10000000000010000000000010000 i
b10000000000010000000000010000 p
b110 A
b110 Z
b110 w
b10000 (
b10000 b
b10000 g
b110 x
b10000 J
b10000 d
b100000000000000000101 8
b100000000000000000101 C
b100000000000000000101 N
b10000 4
b10000 U
b110 ?
b110 ^
b110 u
b10000 5
b10000 a
b100000000000000000101 O
b10001110100001100000000000010000 6
b10001110100001100000000000010000 R
b100000000000000000100 F
b100000000000000010101 /
b100000000000000010101 K
b100000000000000010101 M
b100000000000000000101 .
b100000000000000000101 H
b100000000000000000101 I
b100000000000000000101 L
b100000000000000000100 Q
b100000000000000000100 E
b10000000000000000010000 ,
b10000000000010000000000000000 <
b10000000000010000000000000000 ]
b10000000000010000000000000000 `
b10000000000010000000000000000 k
1!
13
#50
0!
03
#55
b11011110101011011011111011101111 j
b110010 m
0n
b111 A
b111 Z
b111 w
b11001001 2
b11001001 h
b11001001 i
b11001001 p
b0 x
b111 y
b11001001 @
b11001001 Y
b11001001 r
b11001000 c
b11001000 (
b11001000 b
b11001000 g
b0 7
b0 l
b0 q
10
b11001001 s
b0 t
0&
b11100000100000 J
b0 d
b100000000000000000110 8
b100000000000000000110 C
b100000000000000000110 N
b100000 4
b100000 U
0*
0)
1W
b0 9
b0 X
b111 :
b111 v
b1 ;
b1 [
b1 f
b10 >
b10 \
b11100000100000 5
b11100000100000 a
b100000000000000000110 O
b10001100011100000100000 6
b10001100011100000100000 R
b100000000000000000101 F
b100000011100000100110 /
b100000011100000100110 K
b100000011100000100110 M
b100000000000000000110 .
b100000000000000000110 H
b100000000000000000110 I
b100000000000000000110 L
b100000000000000000101 Q
b11001000 <
b11001000 ]
b11001000 `
b11001000 k
b100000000000000000101 E
b10000000000000000010100 ,
1!
13
#60
0!
03
#65
b100111111 m
b10011111111 @
b10011111111 Y
b10011111111 r
b10011111111 s
b10011111111 2
b10011111111 h
b10011111111 i
b10011111111 p
b1000 A
b1000 Z
b1000 w
b11111111 (
b11111111 b
b11111111 g
b1000 y
b11111111 c
b100000000100000 J
b100000000000000000111 8
b100000000000000000111 C
b100000000000000000111 N
b1000 :
b1000 v
b11111111 <
b11111111 ]
b11111111 `
b11111111 k
b11 ?
b11 ^
b11 u
b10000000000 ;
b10000000000 [
b10000000000 f
b100 >
b100 \
b100000000100000 5
b100000000100000 a
b100000000000000000111 O
b100000110100000000100000 6
b100000110100000000100000 R
b100000000000000000110 F
b100000100000000100111 /
b100000100000000100111 K
b100000100000000100111 M
b100000000000000000111 .
b100000000000000000111 H
b100000000000000000111 I
b100000000000000000111 L
b100000000000000000110 Q
b100000000000000000110 E
b10000000000000000011000 ,
1!
13
#70
0!
03
#75
b1 %
b1 T
b1 e
b100111111 m
b10011111110 @
b10011111110 Y
b10011111110 r
b10011111110 s
b10011111110 2
b10011111110 h
b10011111110 i
b10011111110 p
b1001 A
b1001 Z
b1001 w
b1 (
b1 b
b1 g
b1001 y
b1 c
b100100000100010 J
b100000000000000001000 8
b100000000000000001000 C
b100000000000000001000 N
b100010 4
b100010 U
b1001 :
b1001 v
b1 <
b1 ]
b1 `
b1 k
b10 ?
b10 ^
b10 u
b10011111111 ;
b10011111111 [
b10011111111 f
b1000 >
b1000 \
b100100000100010 5
b100100000100010 a
b100000000000000001000 O
b1000000100100100000100010 6
b1000000100100100000100010 R
b100000000000000000111 F
b100000100100000101010 /
b100000100100000101010 K
b100000100100000101010 M
b100000000000000001000 .
b100000000000000001000 H
b100000000000000001000 I
b100000000000000001000 L
b100000000000000000111 Q
b100000000000000000111 E
b10000000000000000011100 ,
1!
13
#80
0!
03
#85
b10 %
b10 T
b10 e
b0 m
b0 @
b0 Y
b0 r
b0 s
b1010 A
b1010 Z
b1010 w
b11111111 (
b11111111 b
b11111111 g
b0 2
b0 h
b0 i
b0 p
b1010 y
b11111111 c
b101000000100100 J
b100000000000000001001 8
b100000000000000001001 C
b100000000000000001001 N
b100100 4
b100100 U
b1010 :
b1010 v
b11111111 <
b11111111 ]
b11111111 `
b11111111 k
b11 ?
b11 ^
b11 u
b10000000000 ;
b10000000000 [
b10000000000 f
b100 >
b100 \
b101000000100100 5
b101000000100100 a
b100000000000000001001 O
b100000110101000000100100 6
b100000110101000000100100 R
b100000000000000001000 F
b100000101000000101101 /
b100000101000000101101 K
b100000101000000101101 M
b100000000000000001001 .
b100000000000000001001 H
b100000000000000001001 I
b100000000000000001001 L
b100000000000000001000 Q
b100000000000000001000 E
b10000000000000000100000 ,
1!
13
#90
0!
03
#95
b100000000 m
b10000000000 @
b10000000000 Y
b10000000000 r
b10000000000 s
b10000000000 2
b10000000000 h
b10000000000 i
b10000000000 p
b11 %
b11 T
b11 e
b1011 A
b1011 Z
b1011 w
b0 (
b0 b
b0 g
b1011 y
b0 c
b101100000100101 J
b100000000000000001010 8
b100000000000000001010 C
b100000000000000001010 N
b100101 4
b100101 U
b1011 :
b1011 v
b0 <
b0 ]
b0 `
b0 k
b1010 ?
b1010 ^
b1010 u
b101100000100101 5
b101100000100101 a
b100000000000000001010 O
b100010100101100000100101 6
b100010100101100000100101 R
b100000000000000001001 F
b100000101100000101111 /
b100000101100000101111 K
b100000101100000101111 M
b100000000000000001010 .
b100000000000000001010 H
b100000000000000001010 I
b100000000000000001010 L
b100000000000000001001 Q
b100000000000000001001 E
b10000000000000000100100 ,
1!
13
#100
0!
03
#105
b0 m
b0 @
b0 Y
b0 r
b0 %
b0 T
b0 e
b0 s
b0 2
b0 h
b0 i
b0 p
01
b0 A
b0 Z
b0 w
1V
b0 y
b0 J
b100000000000000001011 8
b100000000000000001011 C
b100000000000000001011 N
b0 4
b0 U
b0 :
b0 v
b0 ?
b0 ^
b0 u
1B
b0 ;
b0 [
b0 f
b0 >
b0 \
b0 5
b0 a
b100000000000000001011 O
b0 6
b0 R
b100000000000000001010 F
b100000000000000001011 /
b100000000000000001011 K
b100000000000000001011 M
b100000000000000001011 .
b100000000000000001011 H
b100000000000000001011 I
b100000000000000001011 L
b100000000000000001010 Q
b100000000000000001010 E
b10000000000000000101000 ,
1!
13
#110
0!
03
#115
b100000000000000001100 8
b100000000000000001100 C
b100000000000000001100 N
b100000000000000001100 O
b100000000000000001011 F
b100000000000000001100 /
b100000000000000001100 K
b100000000000000001100 M
b100000000000000001100 .
b100000000000000001100 H
b100000000000000001100 I
b100000000000000001100 L
b100000000000000001011 Q
b100000000000000001011 E
b10000000000000000101100 ,
1!
13
#120
0!
03
#125
b100000000000000001101 8
b100000000000000001101 C
b100000000000000001101 N
b100000000000000001101 O
b100000000000000001100 F
b100000000000000001101 /
b100000000000000001101 K
b100000000000000001101 M
b100000000000000001101 .
b100000000000000001101 H
b100000000000000001101 I
b100000000000000001101 L
b100000000000000001100 Q
b100000000000000001100 E
b10000000000000000110000 ,
1!
13
#130
0!
03
#135
b100000000000000001110 8
b100000000000000001110 C
b100000000000000001110 N
b100000000000000001110 O
b100000000000000001101 F
b100000000000000001110 /
b100000000000000001110 K
b100000000000000001110 M
b100000000000000001110 .
b100000000000000001110 H
b100000000000000001110 I
b100000000000000001110 L
b100000000000000001101 Q
b100000000000000001101 E
b10000000000000000110100 ,
1!
13
#140
0!
03
#145
b100000000000000001111 8
b100000000000000001111 C
b100000000000000001111 N
b100000000000000001111 O
b100000000000000001110 F
b100000000000000001111 /
b100000000000000001111 K
b100000000000000001111 M
b100000000000000001111 .
b100000000000000001111 H
b100000000000000001111 I
b100000000000000001111 L
b100000000000000001110 Q
b100000000000000001110 E
b10000000000000000111000 ,
1!
13
#150
0!
03
#155
b100000000000000010000 8
b100000000000000010000 C
b100000000000000010000 N
b100000000000000010000 O
b100000000000000001111 F
b100000000000000010000 /
b100000000000000010000 K
b100000000000000010000 M
b100000000000000010000 .
b100000000000000010000 H
b100000000000000010000 I
b100000000000000010000 L
b100000000000000001111 Q
b100000000000000001111 E
b10000000000000000111100 ,
1!
13
#160
0!
03
#165
b100000000000000010001 8
b100000000000000010001 C
b100000000000000010001 N
b100000000000000010001 O
b100000000000000010000 F
b100000000000000010001 /
b100000000000000010001 K
b100000000000000010001 M
b100000000000000010001 .
b100000000000000010001 H
b100000000000000010001 I
b100000000000000010001 L
b100000000000000010000 Q
b100000000000000010000 E
b10000000000000001000000 ,
1!
13
#170
0!
03
#175
b100000000000000010010 8
b100000000000000010010 C
b100000000000000010010 N
b100000000000000010010 O
b100000000000000010001 F
b100000000000000010010 /
b100000000000000010010 K
b100000000000000010010 M
b100000000000000010010 .
b100000000000000010010 H
b100000000000000010010 I
b100000000000000010010 L
b100000000000000010001 Q
b100000000000000010001 E
b10000000000000001000100 ,
1!
13
#180
0!
03
#185
b100000000000000010011 8
b100000000000000010011 C
b100000000000000010011 N
b100000000000000010011 O
b100000000000000010010 F
b100000000000000010011 /
b100000000000000010011 K
b100000000000000010011 M
b100000000000000010011 .
b100000000000000010011 H
b100000000000000010011 I
b100000000000000010011 L
b100000000000000010010 Q
b100000000000000010010 E
b10000000000000001001000 ,
1!
13
#190
0!
03
#195
b100000000000000010100 8
b100000000000000010100 C
b100000000000000010100 N
b100000000000000010100 O
b100000000000000010011 F
b100000000000000010100 /
b100000000000000010100 K
b100000000000000010100 M
b100000000000000010100 .
b100000000000000010100 H
b100000000000000010100 I
b100000000000000010100 L
b100000000000000010011 Q
b100000000000000010011 E
b10000000000000001001100 ,
1!
13
#200
0!
03
#205
b100000000000000010101 8
b100000000000000010101 C
b100000000000000010101 N
b100000000000000010101 O
b100000000000000010100 F
b100000000000000010101 /
b100000000000000010101 K
b100000000000000010101 M
b100000000000000010101 .
b100000000000000010101 H
b100000000000000010101 I
b100000000000000010101 L
b100000000000000010100 Q
b100000000000000010100 E
b10000000000000001010000 ,
1!
13
#210
0!
03
#215
b100000000000000010110 8
b100000000000000010110 C
b100000000000000010110 N
b100000000000000010110 O
b100000000000000010101 F
b100000000000000010110 /
b100000000000000010110 K
b100000000000000010110 M
b100000000000000010110 .
b100000000000000010110 H
b100000000000000010110 I
b100000000000000010110 L
b100000000000000010101 Q
b100000000000000010101 E
b10000000000000001010100 ,
1!
13
#220
0!
03
#225
b100000000000000010111 8
b100000000000000010111 C
b100000000000000010111 N
b100000000000000010111 O
b100000000000000010110 F
b100000000000000010111 /
b100000000000000010111 K
b100000000000000010111 M
b100000000000000010111 .
b100000000000000010111 H
b100000000000000010111 I
b100000000000000010111 L
b100000000000000010110 Q
b100000000000000010110 E
b10000000000000001011000 ,
1!
13
#230
0!
03
#235
b100000000000000011000 8
b100000000000000011000 C
b100000000000000011000 N
b100000000000000011000 O
b100000000000000010111 F
b100000000000000011000 /
b100000000000000011000 K
b100000000000000011000 M
b100000000000000011000 .
b100000000000000011000 H
b100000000000000011000 I
b100000000000000011000 L
b100000000000000010111 Q
b100000000000000010111 E
b10000000000000001011100 ,
1!
13
#240
0!
03
#245
b100000000000000011001 8
b100000000000000011001 C
b100000000000000011001 N
b100000000000000011001 O
b100000000000000011000 F
b100000000000000011001 /
b100000000000000011001 K
b100000000000000011001 M
b100000000000000011001 .
b100000000000000011001 H
b100000000000000011001 I
b100000000000000011001 L
b100000000000000011000 Q
b100000000000000011000 E
b10000000000000001100000 ,
1!
13
#250
0!
03
#255
b100000000000000011010 8
b100000000000000011010 C
b100000000000000011010 N
b100000000000000011010 O
b100000000000000011001 F
b100000000000000011010 /
b100000000000000011010 K
b100000000000000011010 M
b100000000000000011010 .
b100000000000000011010 H
b100000000000000011010 I
b100000000000000011010 L
b100000000000000011001 Q
b100000000000000011001 E
b10000000000000001100100 ,
1!
13
#260
0!
03
#265
b100000000000000011011 8
b100000000000000011011 C
b100000000000000011011 N
b100000000000000011011 O
b100000000000000011010 F
b100000000000000011011 /
b100000000000000011011 K
b100000000000000011011 M
b100000000000000011011 .
b100000000000000011011 H
b100000000000000011011 I
b100000000000000011011 L
b100000000000000011010 Q
b100000000000000011010 E
b10000000000000001101000 ,
1!
13
#270
0!
03
#275
b100000000000000011100 8
b100000000000000011100 C
b100000000000000011100 N
b100000000000000011100 O
b100000000000000011011 F
b100000000000000011100 /
b100000000000000011100 K
b100000000000000011100 M
b100000000000000011100 .
b100000000000000011100 H
b100000000000000011100 I
b100000000000000011100 L
b100000000000000011011 Q
b100000000000000011011 E
b10000000000000001101100 ,
1!
13
#280
0!
03
#285
b100000000000000011101 8
b100000000000000011101 C
b100000000000000011101 N
b100000000000000011101 O
b100000000000000011100 F
b100000000000000011101 /
b100000000000000011101 K
b100000000000000011101 M
b100000000000000011101 .
b100000000000000011101 H
b100000000000000011101 I
b100000000000000011101 L
b100000000000000011100 Q
b100000000000000011100 E
b10000000000000001110000 ,
1!
13
#290
0!
03
#295
b100000000000000011110 8
b100000000000000011110 C
b100000000000000011110 N
b100000000000000011110 O
b100000000000000011101 F
b100000000000000011110 /
b100000000000000011110 K
b100000000000000011110 M
b100000000000000011110 .
b100000000000000011110 H
b100000000000000011110 I
b100000000000000011110 L
b100000000000000011101 Q
b100000000000000011101 E
b10000000000000001110100 ,
1!
13
#300
0!
03
#305
b100000000000000011111 8
b100000000000000011111 C
b100000000000000011111 N
b100000000000000011111 O
b100000000000000011110 F
b100000000000000011111 /
b100000000000000011111 K
b100000000000000011111 M
b100000000000000011111 .
b100000000000000011111 H
b100000000000000011111 I
b100000000000000011111 L
b100000000000000011110 Q
b100000000000000011110 E
b10000000000000001111000 ,
1!
13
#310
0!
03
#313
1"
#315
b100000000000000100000 8
b100000000000000100000 C
b100000000000000100000 N
b100000000000000100000 O
b100000000000000011111 F
b100000000000000100000 /
b100000000000000100000 K
b100000000000000100000 M
b100000000000000100000 .
b100000000000000100000 H
b100000000000000100000 I
b100000000000000100000 L
b100000000000000011111 Q
b100000000000000011111 E
b10000000000000001111100 ,
1!
13
#320
b100000 #
0!
03
